0.000000000000000000e+00,0.000000000000000000e+00,0.000000000000000000e+00,0.000000000000000000e+00,0.000000000000000000e+00,0.000000000000000000e+00
1.740494544925093312e-02,-2.098723582756620992e-03,-1.161003728758478121e-03,1.400232207419126315e-03,5.822823586297875241e-03,2.914563328937853307e-03
3.480989089850186624e-02,-4.399939657899057562e-03,-2.277687994522685586e-03,3.121784874394404382e-03,1.159402667905889278e-02,5.809420227507666387e-03
5.221483634775279936e-02,-6.898203884684470100e-03,-3.347491029423745306e-03,5.149674227619789255e-03,1.729834878441141588e-02,8.676801288307708915e-03
6.961978179700373248e-02,-9.587754514639017581e-03,-4.367991388440262482e-03,7.466152720033648361e-03,2.291927159158135482e-02,1.150856603000261803e-02
8.702472724625466560e-02,-1.246256077123653744e-02,-5.336912731444242927e-03,1.005070793136106019e-02,2.843899873188072622e-02,1.429624686380743040e-02
1.044296726955055987e-01,-1.551636683261430061e-02,-6.252125411895293784e-03,1.288009461924161450e-02,3.383846823316767616e-02,1.703110532711897551e-02
1.218346181447565318e-01,-1.874272876992450626e-02,-7.111645306403827430e-03,1.592840763145289898e-02,3.909740560916648289e-02,1.970420228435839499e-02
1.392395635940074650e-01,-2.213504226319085860e-02,-7.913630541493493764e-03,1.916720481659779651e-02,4.419442689822063175e-02,2.230648414029674440e-02
1.566445090432583842e-01,-2.568655964997605332e-02,-8.656376955612655327e-03,2.256569039841396784e-02,4.910720199231716904e-02,2.482888733529252379e-02
1.740494544925093312e-01,-2.939039585341983798e-02,-9.338313253606974826e-03,2.609097010245327308e-02,5.381268880536053956e-02,2.726246332402298619e-02
1.914543999417602782e-01,-3.323952395264047344e-02,-9.957996844606449224e-03,2.970838907851245519e-02,5.828744762702590954e-02,2.959852567339595411e-02
2.088593453910111974e-01,-3.722676252692408427e-02,-1.051411128097978764e-02,3.338196167345760385e-02,6.250804175871060853e-02,3.182881964483089826e-02
2.262642908402621167e-01,-4.134475829689884807e-02,-1.100546601947003517e-02,3.707489771582235527e-02,6.645152470389024957e-02,3.394571250252421957e-02
2.436692362895130637e-01,-4.558596880888224345e-02,-1.143099890186329536e-02,4.075022273424147579e-02,7.009600559427303645e-02,3.594239980196898415e-02
2.610741817387640107e-01,-4.994265071702173181e-02,-1.178978131825731378e-02,4.437147949360814581e-02,7.342127358061600884e-02,3.781311927393889855e-02
2.784791271880149299e-01,-5.440685935022678693e-02,-1.208102551592943157e-02,4.790348619381066403e-02,7.640944981803758640e-02,3.955336012112931066e-02
2.958840726372658492e-01,-5.897046449889126879e-02,-1.230409302547781983e-02,5.131311431897971759e-02,7.904562448899446481e-02,4.116005234791876577e-02
3.132890180865167684e-01,-6.362518565225730449e-02,-1.245850278909622043e-02,5.457003888546501508e-02,8.131842866350420806e-02,4.263171905324081995e-02
3.306939635357677432e-01,-6.836264740880396151e-02,-1.254393738978985644e-02,5.764740841736185062e-02,8.322048927783758099e-02,4.396857524558019092e-02
3.480989089850186624e-01,-7.317445285431467550e-02,-1.256024586251019634e-02,6.052238357285568554e-02,8.474872180592910031e-02,4.517256011398292082e-02
3.655038544342695817e-01,-7.805226991483421584e-02,-1.250744192960628193e-02,6.317650280688380526e-02,8.590442931764245837e-02,4.624729560756679625e-02
3.829087998835205564e-01,-8.298792363440299358e-02,-1.238569708526413883e-02,6.559584977498411629e-02,8.669319658057889066e-02,4.719797174594995287e-02
4.003137453327714756e-01,-8.797348644139033058e-02,-1.219532863958849508e-02,6.777101756377988673e-02,8.712459004610352553e-02,4.803116690827925056e-02
4.177186907820223949e-01,-9.300135890450400566e-02,-1.193678347974212565e-02,6.969688542828376965e-02,8.721169470339026897e-02,4.875461792006306749e-02
4.351236362312733141e-01,-9.806433506331978245e-02,-1.161061878703945928e-02,7.137224074988306188e-02,8.697053323536273195e-02,4.937695889643192032e-02
4.525285816805242334e-01,-1.031556487185435189e-01,-1.121748119068445224e-02,7.279928975142513359e-02,8.641941962008588274e-02,4.990744897571710442e-02
4.699335271297752081e-01,-1.082689995532115507e-01,-1.075808583202422439e-02,7.398310417077377799e-02,8.557829821512906443e-02,5.035570747505112299e-02
4.873384725790261274e-01,-1.133985601552217337e-01,-1.023319660497232220e-02,7.493104831203971361e-02,8.446811202480469793e-02,5.073147135971957378e-02
5.047434180282770466e-01,-1.185389666177460721e-01,-9.643608507463390447e-03,7.565222349882665120e-02,8.311023277567121392e-02,5.104438523355206425e-02
5.221483634775280214e-01,-1.236852962984695964e-01,-8.990132668433507834e-03,7.615695718599124753e-02,8.152597319693564992e-02,5.130382927736151094e-02
5.395533089267788851e-01,-1.288330365769395358e-01,-8.273584271587417979e-03,7.645635387262945948e-02,7.973619058266601112e-02,5.151878638969017987e-02
5.569582543760298599e-01,-1.339780482160798925e-01,-7.494773322140589090e-03,7.656191595287693830e-02,7.776098157084390672e-02,5.169774660438537783e-02
5.743631998252808346e-01,-1.391165263955492781e-01,-6.654498011569337512e-03,7.648523553081972015e-02,7.561946160233271041e-02,5.184864477119820181e-02
5.917681452745316983e-01,-1.442449618107490006e-01,-5.753540324911852327e-03,7.623775323082579436e-02,7.332961862753112348e-02,5.197882638561438645e-02
6.091730907237826731e-01,-1.493601035496121554e-01,-4.792663491060901969e-03,7.583057698737473429e-02,7.090822887414159614e-02,5.209503613352978180e-02
6.265780361730335368e-01,-1.544589248499868006e-01,-3.772610880427852177e-03,7.527435232917510655e-02,6.837082230997056087e-02,5.220342393793796221e-02
6.439829816222845116e-01,-1.595385923424816610e-01,-2.694105988656449267e-03,7.457917535246236240e-02,6.573168627884229398e-02,5.230956384263973219e-02
6.613879270715354863e-01,-1.645964390063035521e-01,-1.557853195198534305e-03,7.375454001054281006e-02,6.300389719718391124e-02,5.241848177134458137e-02
6.787928725207863501e-01,-1.696299407998415887e-01,-3.645390409507400734e-04,7.280931220819887584e-02,6.019937183417811005e-02,5.253468893889269575e-02
6.961978179700373248e-01,-1.746366967554786043e-01,8.851661770854103023e-04,7.175172424340661714e-02,5.732893133348071490e-02,5.266221838895047275e-02
7.136027634192882996e-01,-1.796144122286389422e-01,2.190606647913129722e-03,7.058938422595266438e-02,5.440237263589678407e-02,5.280466274859857423e-02
7.310077088685391633e-01,-1.845608849448393263e-01,3.551139238230351276e-03,6.932929612664150143e-02,5.142854326461379633e-02,5.296521180844179777e-02
7.484126543177901381e-01,-1.894739934788676472e-01,4.966131713127134965e-03,6.797788702131990490e-02,4.841541651755653514e-02,5.314668895653293368e-02
7.658175997670411128e-01,-1.943516878140561788e-01,6.434961038948241660e-03,6.654103887126409933e-02,4.537016498262975983e-02,5.335158582365689961e-02
7.832225452162919765e-01,-1.991919816571749435e-01,7.957011801430035128e-03,6.502412282512412545e-02,4.229923097313390695e-02,5.358209474863275673e-02
8.006274906655429513e-01,-2.039929462188397880e-01,9.531674757358736885e-03,6.343203454788462481e-02,3.920839300058118898e-02,5.384013885866697352e-02
8.180324361147938150e-01,-2.087527052058709143e-01,1.115834552730657001e-02,6.176922949452704620e-02,3.610282778938812831e-02,5.412739969425317543e-02
8.354373815640447898e-01,-2.134694308078179392e-01,1.283642342957168163e-02,6.003975736710458894e-02,3.298716761924603419e-02,5.444534240203307424e-02
8.528423270132957645e-01,-2.181413404931717148e-01,1.456531045049847851e-02,5.824729524004182424e-02,2.986555297969982134e-02,5.479523858200817388e-02
8.702472724625466283e-01,-2.227666944607432642e-01,1.634441034325444936e-02,5.639517902429191931e-02,2.674168065707347580e-02,5.517818691534340930e-02
8.876522179117976030e-01,-2.273437936179839858e-01,1.817312784538159878e-02,5.448643307912899580e-02,2.361884746215097211e-02,5.559513172193269320e-02
9.050571633610484668e-01,-2.318709779806767401e-01,2.005086800463566979e-02,5.252379788132105487e-02,2.049998986043393562e-02,5.604687960771446986e-02
9.224621088102994415e-01,-2.363466254076706241e-01,2.197703560247805943e-02,5.050975573377015221e-02,1.738771979503540496e-02,5.653411436409565977e-02
9.398670542595504163e-01,-2.407691506004923376e-01,2.395103466487170582e-02,4.844655454625759750e-02,1.428435700272424023e-02,5.705741027850828179e-02
9.572719997088012800e-01,-2.451370043111134600e-01,2.597226805059374075e-02,4.633622975507983160e-02,1.119195812185980535e-02,5.761724400810613184e-02
9.746769451580522547e-01,-2.494486727122557645e-01,2.804013710799619502e-02,4.418062447030352696e-02,8.112342881073125733e-03,5.821400515937337483e-02
9.920818906073032295e-01,-2.537026768937251653e-01,3.015404139194182570e-02,4.198140795234141937e-02,5.047117642565581742e-03,5.884800570600619979e-02
1.009486836056554093e+00,-2.578975724556957783e-01,3.231337843345889055e-02,3.974009252602500597e-02,1.997696555974962009e-03,5.951948836656957564e-02
1.026891781505804957e+00,-2.620319491758957842e-01,3.451754355545880171e-02,3.745804904220130516e-02,-1.034679440567703784e-03,6.022863405261606740e-02
1.044296726955056043e+00,-2.661044307325191594e-01,3.676592972862163800e-02,3.513652099551325958e-02,-4.048925555242353924e-03,6.097556848750591840e-02
1.061701672404306906e+00,-2.701136744686065683e-01,3.905792746226242895e-02,3.277663740348672056e-02,-7.044097815570075916e-03,6.176036808628646013e-02
1.079106617853557770e+00,-2.740583711867787264e-01,4.139292472563921299e-02,3.037942454711343651e-02,-1.001937930052799325e-02,6.258306517778690348e-02
1.096511563302808856e+00,-2.779372449657063204e-01,4.377030689574865074e-02,2.794581666735512782e-02,-1.297406777000405763e-02,6.344365264161297424e-02
1.113916508752059720e+00,-2.817490529916903963e-01,4.618945672817940939e-02,2.547666570580347026e-02,-1.590756454600096223e-02,6.434208802499605251e-02
1.131321454201310583e+00,-2.854925854002953178e-01,4.864975434805875881e-02,2.297275017140390854e-02,-1.881936451484918227e-02,6.527829719744536463e-02
1.148726399650561669e+00,-2.891666651242107422e-01,5.115057725853703469e-02,2.043478320888876543e-02,-2.170904713323751345e-02,6.625217759483514879e-02
1.166131345099812533e+00,-2.927701477444809020e-01,5.369130036461425282e-02,1.786341993849982837e-02,-2.457626833315891199e-02,6.726360109888790406e-02
1.183536290549063397e+00,-2.943239132717510032e-01,5.481505392540499816e-02,1.672830405209226046e-02,-2.582332198195002107e-02,6.771778568622839611e-02
1.200941235998314482e+00,-2.943239132717510032e-01,5.481505392540499816e-02,1.672830405209226046e-02,-2.582332198195002107e-02,6.771778568622839611e-02
1.218346181447565346e+00,-2.943239132717510032e-01,5.481505392540499816e-02,1.672830405209226046e-02,-2.582332198195002107e-02,6.771778568622839611e-02
1.235751126896816210e+00,-2.943239132717510032e-01,5.481505392540499816e-02,1.672830405209226046e-02,-2.582332198195002107e-02,6.771778568622839611e-02
1.253156072346067074e+00,-2.943239132717510032e-01,5.481505392540499816e-02,1.672830405209226046e-02,-2.582332198195002107e-02,6.771778568622839611e-02
1.270561017795318159e+00,-2.943239132717510032e-01,5.481505392540499816e-02,1.672830405209226046e-02,-2.582332198195002107e-02,6.771778568622839611e-02
1.287965963244569023e+00,-2.943239132717510032e-01,5.481505392540499816e-02,1.672830405209226046e-02,-2.582332198195002107e-02,6.771778568622839611e-02
1.305370908693819887e+00,-2.943239132717510032e-01,5.481505392540499816e-02,1.672830405209226046e-02,-2.582332198195002107e-02,6.771778568622839611e-02
1.322775854143070973e+00,-2.943239132717510032e-01,5.481505392540499816e-02,1.672830405209226046e-02,-2.582332198195002107e-02,6.771778568622839611e-02
1.340180799592321836e+00,-2.943239132717510032e-01,5.481505392540499816e-02,1.672830405209226046e-02,-2.582332198195002107e-02,6.771778568622839611e-02
1.357585745041572700e+00,-2.943239132717510032e-01,5.481505392540499816e-02,1.672830405209226046e-02,-2.582332198195002107e-02,6.771778568622839611e-02
1.374990690490823786e+00,-2.943239132717510032e-01,5.481505392540499816e-02,1.672830405209226046e-02,-2.582332198195002107e-02,6.771778568622839611e-02
1.392395635940074650e+00,-2.943239132717510032e-01,5.481505392540499816e-02,1.672830405209226046e-02,-2.582332198195002107e-02,6.771778568622839611e-02
1.409800581389325513e+00,-2.943239132717510032e-01,5.481505392540499816e-02,1.672830405209226046e-02,-2.582332198195002107e-02,6.771778568622839611e-02
1.427205526838576599e+00,-2.943239132717510032e-01,5.481505392540499816e-02,1.672830405209226046e-02,-2.582332198195002107e-02,6.771778568622839611e-02
1.444610472287827463e+00,-2.943239132717510032e-01,5.481505392540499816e-02,1.672830405209226046e-02,-2.582332198195002107e-02,6.771778568622839611e-02
1.462015417737078327e+00,-2.943239132717510032e-01,5.481505392540499816e-02,1.672830405209226046e-02,-2.582332198195002107e-02,6.771778568622839611e-02
1.479420363186329412e+00,-2.943239132717510032e-01,5.481505392540499816e-02,1.672830405209226046e-02,-2.582332198195002107e-02,6.771778568622839611e-02
1.496825308635580276e+00,-2.943239132717510032e-01,5.481505392540499816e-02,1.672830405209226046e-02,-2.582332198195002107e-02,6.771778568622839611e-02
1.514230254084831140e+00,-2.943239132717510032e-01,5.481505392540499816e-02,1.672830405209226046e-02,-2.582332198195002107e-02,6.771778568622839611e-02
1.531635199534082226e+00,-2.943239132717510032e-01,5.481505392540499816e-02,1.672830405209226046e-02,-2.582332198195002107e-02,6.771778568622839611e-02
1.549040144983333089e+00,-2.943239132717510032e-01,5.481505392540499816e-02,1.672830405209226046e-02,-2.582332198195002107e-02,6.771778568622839611e-02
1.566445090432583953e+00,-2.943239132717510032e-01,5.481505392540499816e-02,1.672830405209226046e-02,-2.582332198195002107e-02,6.771778568622839611e-02
1.583850035881834817e+00,-2.943239132717510032e-01,5.481505392540499816e-02,1.672830405209226046e-02,-2.582332198195002107e-02,6.771778568622839611e-02
1.601254981331085903e+00,-2.943239132717510032e-01,5.481505392540499816e-02,1.672830405209226046e-02,-2.582332198195002107e-02,6.771778568622839611e-02
1.618659926780336766e+00,-2.943239132717510032e-01,5.481505392540499816e-02,1.672830405209226046e-02,-2.582332198195002107e-02,6.771778568622839611e-02
1.636064872229587630e+00,-2.943239132717510032e-01,5.481505392540499816e-02,1.672830405209226046e-02,-2.582332198195002107e-02,6.771778568622839611e-02
1.653469817678838716e+00,-2.943239132717510032e-01,5.481505392540499816e-02,1.672830405209226046e-02,-2.582332198195002107e-02,6.771778568622839611e-02
1.670874763128089580e+00,-2.943239132717510032e-01,5.481505392540499816e-02,1.672830405209226046e-02,-2.582332198195002107e-02,6.771778568622839611e-02
1.688279708577340443e+00,-2.943239132717510032e-01,5.481505392540499816e-02,1.672830405209226046e-02,-2.582332198195002107e-02,6.771778568622839611e-02
1.705684654026591529e+00,-2.943239132717510032e-01,5.481505392540499816e-02,1.672830405209226046e-02,-2.582332198195002107e-02,6.771778568622839611e-02
1.723089599475842393e+00,-2.943239132717510032e-01,5.481505392540499816e-02,1.672830405209226046e-02,-2.582332198195002107e-02,6.771778568622839611e-02
1.740494544925093257e+00,-2.943239132717510032e-01,5.481505392540499816e-02,1.672830405209226046e-02,-2.582332198195002107e-02,6.771778568622839611e-02
1.757899490374344342e+00,-2.943239132717510032e-01,5.481505392540499816e-02,1.672830405209226046e-02,-2.582332198195002107e-02,6.771778568622839611e-02
1.775304435823595206e+00,-2.943239132717510032e-01,5.481505392540499816e-02,1.672830405209226046e-02,-2.582332198195002107e-02,6.771778568622839611e-02
1.792709381272846070e+00,-2.943239132717510032e-01,5.481505392540499816e-02,1.672830405209226046e-02,-2.582332198195002107e-02,6.771778568622839611e-02
1.810114326722096934e+00,-2.943239132717510032e-01,5.481505392540499816e-02,1.672830405209226046e-02,-2.582332198195002107e-02,6.771778568622839611e-02
1.827519272171348019e+00,-2.943239132717510032e-01,5.481505392540499816e-02,1.672830405209226046e-02,-2.582332198195002107e-02,6.771778568622839611e-02
1.844924217620598883e+00,-2.943239132717510032e-01,5.481505392540499816e-02,1.672830405209226046e-02,-2.582332198195002107e-02,6.771778568622839611e-02
1.862329163069849747e+00,-2.943239132717510032e-01,5.481505392540499816e-02,1.672830405209226046e-02,-2.582332198195002107e-02,6.771778568622839611e-02
1.879734108519100833e+00,-2.943239132717510032e-01,5.481505392540499816e-02,1.672830405209226046e-02,-2.582332198195002107e-02,6.771778568622839611e-02
1.897139053968351696e+00,-2.943239132717510032e-01,5.481505392540499816e-02,1.672830405209226046e-02,-2.582332198195002107e-02,6.771778568622839611e-02
1.914543999417602560e+00,-2.943239132717510032e-01,5.481505392540499816e-02,1.672830405209226046e-02,-2.582332198195002107e-02,6.771778568622839611e-02
1.931948944866853646e+00,-2.943239132717510032e-01,5.481505392540499816e-02,1.672830405209226046e-02,-2.582332198195002107e-02,6.771778568622839611e-02
1.949353890316104509e+00,-2.943239132717510032e-01,5.481505392540499816e-02,1.672830405209226046e-02,-2.582332198195002107e-02,6.771778568622839611e-02
1.966758835765355373e+00,-2.943239132717510032e-01,5.481505392540499816e-02,1.672830405209226046e-02,-2.582332198195002107e-02,6.771778568622839611e-02
1.984163781214606459e+00,-2.943239132717510032e-01,5.481505392540499816e-02,1.672830405209226046e-02,-2.582332198195002107e-02,6.771778568622839611e-02
2.001568726663857323e+00,-2.943239132717510032e-01,5.481505392540499816e-02,1.672830405209226046e-02,-2.582332198195002107e-02,6.771778568622839611e-02
2.018973672113108186e+00,-2.943239132717510032e-01,5.481505392540499816e-02,1.672830405209226046e-02,-2.582332198195002107e-02,6.771778568622839611e-02
2.036378617562359050e+00,-2.943239132717510032e-01,5.481505392540499816e-02,1.672830405209226046e-02,-2.582332198195002107e-02,6.771778568622839611e-02
2.053783563011609914e+00,-2.943239132717510032e-01,5.481505392540499816e-02,1.672830405209226046e-02,-2.582332198195002107e-02,6.771778568622839611e-02
2.071188508460861222e+00,-2.943239132717510032e-01,5.481505392540499816e-02,1.672830405209226046e-02,-2.582332198195002107e-02,6.771778568622839611e-02
2.088593453910112085e+00,-2.943239132717510032e-01,5.481505392540499816e-02,1.672830405209226046e-02,-2.582332198195002107e-02,6.771778568622839611e-02
2.105998399359362949e+00,-2.943239132717510032e-01,5.481505392540499816e-02,1.672830405209226046e-02,-2.582332198195002107e-02,6.771778568622839611e-02
2.123403344808613813e+00,-2.943239132717510032e-01,5.481505392540499816e-02,1.672830405209226046e-02,-2.582332198195002107e-02,6.771778568622839611e-02
2.140808290257864677e+00,-2.943239132717510032e-01,5.481505392540499816e-02,1.672830405209226046e-02,-2.582332198195002107e-02,6.771778568622839611e-02
2.158213235707115540e+00,-2.943239132717510032e-01,5.481505392540499816e-02,1.672830405209226046e-02,-2.582332198195002107e-02,6.771778568622839611e-02
2.175618181156366848e+00,-2.943239132717510032e-01,5.481505392540499816e-02,1.672830405209226046e-02,-2.582332198195002107e-02,6.771778568622839611e-02
2.193023126605617712e+00,-2.943239132717510032e-01,5.481505392540499816e-02,1.672830405209226046e-02,-2.582332198195002107e-02,6.771778568622839611e-02
2.210428072054868576e+00,-2.943239132717510032e-01,5.481505392540499816e-02,1.672830405209226046e-02,-2.582332198195002107e-02,6.771778568622839611e-02
2.227833017504119439e+00,-2.943239132717510032e-01,5.481505392540499816e-02,1.672830405209226046e-02,-2.582332198195002107e-02,6.771778568622839611e-02
2.245237962953370303e+00,-2.943239132717510032e-01,5.481505392540499816e-02,1.672830405209226046e-02,-2.582332198195002107e-02,6.771778568622839611e-02
2.262642908402621167e+00,-2.943239132717510032e-01,5.481505392540499816e-02,1.672830405209226046e-02,-2.582332198195002107e-02,6.771778568622839611e-02
2.280047853851872031e+00,-2.943239132717510032e-01,5.481505392540499816e-02,1.672830405209226046e-02,-2.582332198195002107e-02,6.771778568622839611e-02
2.297452799301123338e+00,-2.943239132717510032e-01,5.481505392540499816e-02,1.672830405209226046e-02,-2.582332198195002107e-02,6.771778568622839611e-02
2.314857744750374202e+00,-2.943239132717510032e-01,5.481505392540499816e-02,1.672830405209226046e-02,-2.582332198195002107e-02,6.771778568622839611e-02
2.332262690199625066e+00,-2.943239132717510032e-01,5.481505392540499816e-02,1.672830405209226046e-02,-2.582332198195002107e-02,6.771778568622839611e-02
2.349667635648875930e+00,-2.943239132717510032e-01,5.481505392540499816e-02,1.672830405209226046e-02,-2.582332198195002107e-02,6.771778568622839611e-02
2.367072581098126793e+00,-2.943239132717510032e-01,5.481505392540499816e-02,1.672830405209226046e-02,-2.582332198195002107e-02,6.771778568622839611e-02
2.384477526547377657e+00,-2.943239132717510032e-01,5.481505392540499816e-02,1.672830405209226046e-02,-2.582332198195002107e-02,6.771778568622839611e-02
2.401882471996628965e+00,-2.943239132717510032e-01,5.481505392540499816e-02,1.672830405209226046e-02,-2.582332198195002107e-02,6.771778568622839611e-02
2.419287417445879829e+00,-2.943239132717510032e-01,5.481505392540499816e-02,1.672830405209226046e-02,-2.582332198195002107e-02,6.771778568622839611e-02
2.436692362895130692e+00,-2.943239132717510032e-01,5.481505392540499816e-02,1.672830405209226046e-02,-2.582332198195002107e-02,6.771778568622839611e-02
2.454097308344381556e+00,-2.943239132717510032e-01,5.481505392540499816e-02,1.672830405209226046e-02,-2.582332198195002107e-02,6.771778568622839611e-02
2.471502253793632420e+00,-2.943239132717510032e-01,5.481505392540499816e-02,1.672830405209226046e-02,-2.582332198195002107e-02,6.771778568622839611e-02
2.488907199242883284e+00,-2.943239132717510032e-01,5.481505392540499816e-02,1.672830405209226046e-02,-2.582332198195002107e-02,6.771778568622839611e-02
2.506312144692134147e+00,-2.943239132717510032e-01,5.481505392540499816e-02,1.672830405209226046e-02,-2.582332198195002107e-02,6.771778568622839611e-02
2.523717090141385455e+00,-2.943239132717510032e-01,5.481505392540499816e-02,1.672830405209226046e-02,-2.582332198195002107e-02,6.771778568622839611e-02
2.541122035590636319e+00,-2.943239132717510032e-01,5.481505392540499816e-02,1.672830405209226046e-02,-2.582332198195002107e-02,6.771778568622839611e-02
2.558526981039887183e+00,-2.943239132717510032e-01,5.481505392540499816e-02,1.672830405209226046e-02,-2.582332198195002107e-02,6.771778568622839611e-02
2.575931926489138046e+00,-2.943239132717510032e-01,5.481505392540499816e-02,1.672830405209226046e-02,-2.582332198195002107e-02,6.771778568622839611e-02
2.593336871938388910e+00,-2.943239132717510032e-01,5.481505392540499816e-02,1.672830405209226046e-02,-2.582332198195002107e-02,6.771778568622839611e-02
2.610741817387639774e+00,-2.943239132717510032e-01,5.481505392540499816e-02,1.672830405209226046e-02,-2.582332198195002107e-02,6.771778568622839611e-02
2.628146762836891082e+00,-2.943239132717510032e-01,5.481505392540499816e-02,1.672830405209226046e-02,-2.582332198195002107e-02,6.771778568622839611e-02
2.645551708286141945e+00,-2.943239132717510032e-01,5.481505392540499816e-02,1.672830405209226046e-02,-2.582332198195002107e-02,6.771778568622839611e-02
2.662956653735392809e+00,-2.943239132717510032e-01,5.481505392540499816e-02,1.672830405209226046e-02,-2.582332198195002107e-02,6.771778568622839611e-02
2.680361599184643673e+00,-2.943239132717510032e-01,5.481505392540499816e-02,1.672830405209226046e-02,-2.582332198195002107e-02,6.771778568622839611e-02
2.697766544633894537e+00,-2.943239132717510032e-01,5.481505392540499816e-02,1.672830405209226046e-02,-2.582332198195002107e-02,6.771778568622839611e-02
2.715171490083145400e+00,-2.943239132717510032e-01,5.481505392540499816e-02,1.672830405209226046e-02,-2.582332198195002107e-02,6.771778568622839611e-02
2.732576435532396708e+00,-2.943239132717510032e-01,5.481505392540499816e-02,1.672830405209226046e-02,-2.582332198195002107e-02,6.771778568622839611e-02
2.749981380981647572e+00,-2.943239132717510032e-01,5.481505392540499816e-02,1.672830405209226046e-02,-2.582332198195002107e-02,6.771778568622839611e-02
2.767386326430898436e+00,-2.943239132717510032e-01,5.481505392540499816e-02,1.672830405209226046e-02,-2.582332198195002107e-02,6.771778568622839611e-02
2.784791271880149299e+00,-2.943239132717510032e-01,5.481505392540499816e-02,1.672830405209226046e-02,-2.582332198195002107e-02,6.771778568622839611e-02
2.802196217329400163e+00,-2.943239132717510032e-01,5.481505392540499816e-02,1.672830405209226046e-02,-2.582332198195002107e-02,6.771778568622839611e-02
2.819601162778651027e+00,-2.943239132717510032e-01,5.481505392540499816e-02,1.672830405209226046e-02,-2.582332198195002107e-02,6.771778568622839611e-02
2.837006108227901890e+00,-2.943239132717510032e-01,5.481505392540499816e-02,1.672830405209226046e-02,-2.582332198195002107e-02,6.771778568622839611e-02
2.854411053677153198e+00,-2.943239132717510032e-01,5.481505392540499816e-02,1.672830405209226046e-02,-2.582332198195002107e-02,6.771778568622839611e-02
2.871815999126404062e+00,-2.943239132717510032e-01,5.481505392540499816e-02,1.672830405209226046e-02,-2.582332198195002107e-02,6.771778568622839611e-02
2.889220944575654926e+00,-2.943239132717510032e-01,5.481505392540499816e-02,1.672830405209226046e-02,-2.582332198195002107e-02,6.771778568622839611e-02
2.906625890024905789e+00,-2.943239132717510032e-01,5.481505392540499816e-02,1.672830405209226046e-02,-2.582332198195002107e-02,6.771778568622839611e-02
2.924030835474156653e+00,-2.943239132717510032e-01,5.481505392540499816e-02,1.672830405209226046e-02,-2.582332198195002107e-02,6.771778568622839611e-02
2.941435780923407517e+00,-2.943239132717510032e-01,5.481505392540499816e-02,1.672830405209226046e-02,-2.582332198195002107e-02,6.771778568622839611e-02
2.958840726372658825e+00,-2.943239132717510032e-01,5.481505392540499816e-02,1.672830405209226046e-02,-2.582332198195002107e-02,6.771778568622839611e-02
2.976245671821909689e+00,-2.943239132717510032e-01,5.481505392540499816e-02,1.672830405209226046e-02,-2.582332198195002107e-02,6.771778568622839611e-02
2.993650617271160552e+00,-2.943239132717510032e-01,5.481505392540499816e-02,1.672830405209226046e-02,-2.582332198195002107e-02,6.771778568622839611e-02
3.011055562720411416e+00,-2.943239132717510032e-01,5.481505392540499816e-02,1.672830405209226046e-02,-2.582332198195002107e-02,6.771778568622839611e-02
3.028460508169662280e+00,-2.943239132717510032e-01,5.481505392540499816e-02,1.672830405209226046e-02,-2.582332198195002107e-02,6.771778568622839611e-02
3.045865453618913143e+00,-2.943239132717510032e-01,5.481505392540499816e-02,1.672830405209226046e-02,-2.582332198195002107e-02,6.771778568622839611e-02
3.063270399068164451e+00,-2.943239132717510032e-01,5.481505392540499816e-02,1.672830405209226046e-02,-2.582332198195002107e-02,6.771778568622839611e-02
3.080675344517415315e+00,-2.943239132717510032e-01,5.481505392540499816e-02,1.672830405209226046e-02,-2.582332198195002107e-02,6.771778568622839611e-02
3.098080289966666179e+00,-2.943239132717510032e-01,5.481505392540499816e-02,1.672830405209226046e-02,-2.582332198195002107e-02,6.771778568622839611e-02
3.115485235415917042e+00,-2.943239132717510032e-01,5.481505392540499816e-02,1.672830405209226046e-02,-2.582332198195002107e-02,6.771778568622839611e-02
3.132890180865167906e+00,-2.943239132717510032e-01,5.481505392540499816e-02,1.672830405209226046e-02,-2.582332198195002107e-02,6.771778568622839611e-02
3.150295126314418770e+00,-2.943239132717510032e-01,5.481505392540499816e-02,1.672830405209226046e-02,-2.582332198195002107e-02,6.771778568622839611e-02
3.167700071763669634e+00,-2.943239132717510032e-01,5.481505392540499816e-02,1.672830405209226046e-02,-2.582332198195002107e-02,6.771778568622839611e-02
3.185105017212920941e+00,-2.943239132717510032e-01,5.481505392540499816e-02,1.672830405209226046e-02,-2.582332198195002107e-02,6.771778568622839611e-02
3.202509962662171805e+00,-2.943239132717510032e-01,5.481505392540499816e-02,1.672830405209226046e-02,-2.582332198195002107e-02,6.771778568622839611e-02
3.219914908111422669e+00,-2.943239132717510032e-01,5.481505392540499816e-02,1.672830405209226046e-02,-2.582332198195002107e-02,6.771778568622839611e-02
3.237319853560673533e+00,-2.943239132717510032e-01,5.481505392540499816e-02,1.672830405209226046e-02,-2.582332198195002107e-02,6.771778568622839611e-02
3.254724799009924396e+00,-2.943239132717510032e-01,5.481505392540499816e-02,1.672830405209226046e-02,-2.582332198195002107e-02,6.771778568622839611e-02
3.272129744459175260e+00,-2.943239132717510032e-01,5.481505392540499816e-02,1.672830405209226046e-02,-2.582332198195002107e-02,6.771778568622839611e-02
3.289534689908426568e+00,-2.943239132717510032e-01,5.481505392540499816e-02,1.672830405209226046e-02,-2.582332198195002107e-02,6.771778568622839611e-02
3.306939635357677432e+00,-2.943239132717510032e-01,5.481505392540499816e-02,1.672830405209226046e-02,-2.582332198195002107e-02,6.771778568622839611e-02
3.324344580806928295e+00,-2.943239132717510032e-01,5.481505392540499816e-02,1.672830405209226046e-02,-2.582332198195002107e-02,6.771778568622839611e-02
3.341749526256179159e+00,-2.943239132717510032e-01,5.481505392540499816e-02,1.672830405209226046e-02,-2.582332198195002107e-02,6.771778568622839611e-02
3.359154471705430023e+00,-2.943239132717510032e-01,5.481505392540499816e-02,1.672830405209226046e-02,-2.582332198195002107e-02,6.771778568622839611e-02
3.376559417154680887e+00,-2.943239132717510032e-01,5.481505392540499816e-02,1.672830405209226046e-02,-2.582332198195002107e-02,6.771778568622839611e-02
3.393964362603931750e+00,-2.943239132717510032e-01,5.481505392540499816e-02,1.672830405209226046e-02,-2.582332198195002107e-02,6.771778568622839611e-02
3.411369308053183058e+00,-2.943239132717510032e-01,5.481505392540499816e-02,1.672830405209226046e-02,-2.582332198195002107e-02,6.771778568622839611e-02
3.428774253502433922e+00,-2.943239132717510032e-01,5.481505392540499816e-02,1.672830405209226046e-02,-2.582332198195002107e-02,6.771778568622839611e-02
3.446179198951684786e+00,-2.943239132717510032e-01,5.481505392540499816e-02,1.672830405209226046e-02,-2.582332198195002107e-02,6.771778568622839611e-02
3.463584144400935649e+00,-2.943239132717510032e-01,5.481505392540499816e-02,1.672830405209226046e-02,-2.582332198195002107e-02,6.771778568622839611e-02
3.480989089850186513e+00,-2.943239132717510032e-01,5.481505392540499816e-02,1.672830405209226046e-02,-2.582332198195002107e-02,6.771778568622839611e-02
3.498394035299437377e+00,-2.943239132717510032e-01,5.481505392540499816e-02,1.672830405209226046e-02,-2.582332198195002107e-02,6.771778568622839611e-02
3.515798980748688685e+00,-2.943239132717510032e-01,5.481505392540499816e-02,1.672830405209226046e-02,-2.582332198195002107e-02,6.771778568622839611e-02
3.533203926197939548e+00,-2.943239132717510032e-01,5.481505392540499816e-02,1.672830405209226046e-02,-2.582332198195002107e-02,6.771778568622839611e-02
3.550608871647190412e+00,-2.943239132717510032e-01,5.481505392540499816e-02,1.672830405209226046e-02,-2.582332198195002107e-02,6.771778568622839611e-02
3.568013817096441276e+00,-2.943239132717510032e-01,5.481505392540499816e-02,1.672830405209226046e-02,-2.582332198195002107e-02,6.771778568622839611e-02
3.585418762545692140e+00,-2.943239132717510032e-01,5.481505392540499816e-02,1.672830405209226046e-02,-2.582332198195002107e-02,6.771778568622839611e-02
3.602823707994943003e+00,-2.943239132717510032e-01,5.481505392540499816e-02,1.672830405209226046e-02,-2.582332198195002107e-02,6.771778568622839611e-02
3.620228653444193867e+00,-2.943239132717510032e-01,5.481505392540499816e-02,1.672830405209226046e-02,-2.582332198195002107e-02,6.771778568622839611e-02
3.637633598893445175e+00,-2.943239132717510032e-01,5.481505392540499816e-02,1.672830405209226046e-02,-2.582332198195002107e-02,6.771778568622839611e-02
3.655038544342696039e+00,-2.943239132717510032e-01,5.481505392540499816e-02,1.672830405209226046e-02,-2.582332198195002107e-02,6.771778568622839611e-02
3.672443489791946902e+00,-2.943239132717510032e-01,5.481505392540499816e-02,1.672830405209226046e-02,-2.582332198195002107e-02,6.771778568622839611e-02
3.689848435241197766e+00,-2.943239132717510032e-01,5.481505392540499816e-02,1.672830405209226046e-02,-2.582332198195002107e-02,6.771778568622839611e-02
3.707253380690448630e+00,-2.943239132717510032e-01,5.481505392540499816e-02,1.672830405209226046e-02,-2.582332198195002107e-02,6.771778568622839611e-02
3.724658326139699493e+00,-2.943239132717510032e-01,5.481505392540499816e-02,1.672830405209226046e-02,-2.582332198195002107e-02,6.771778568622839611e-02
3.742063271588950801e+00,-2.943239132717510032e-01,5.481505392540499816e-02,1.672830405209226046e-02,-2.582332198195002107e-02,6.771778568622839611e-02
3.759468217038201665e+00,-2.943239132717510032e-01,5.481505392540499816e-02,1.672830405209226046e-02,-2.582332198195002107e-02,6.771778568622839611e-02
3.776873162487452529e+00,-2.943239132717510032e-01,5.481505392540499816e-02,1.672830405209226046e-02,-2.582332198195002107e-02,6.771778568622839611e-02
3.794278107936703393e+00,-2.943239132717510032e-01,5.481505392540499816e-02,1.672830405209226046e-02,-2.582332198195002107e-02,6.771778568622839611e-02
3.811683053385954256e+00,-2.943239132717510032e-01,5.481505392540499816e-02,1.672830405209226046e-02,-2.582332198195002107e-02,6.771778568622839611e-02
3.829087998835205120e+00,-2.943239132717510032e-01,5.481505392540499816e-02,1.672830405209226046e-02,-2.582332198195002107e-02,6.771778568622839611e-02
3.846492944284456428e+00,-2.943239132717510032e-01,5.481505392540499816e-02,1.672830405209226046e-02,-2.582332198195002107e-02,6.771778568622839611e-02
3.863897889733707292e+00,-2.943239132717510032e-01,5.481505392540499816e-02,1.672830405209226046e-02,-2.582332198195002107e-02,6.771778568622839611e-02
3.881302835182958155e+00,-2.943239132717510032e-01,5.481505392540499816e-02,1.672830405209226046e-02,-2.582332198195002107e-02,6.771778568622839611e-02
3.898707780632209019e+00,-2.943239132717510032e-01,5.481505392540499816e-02,1.672830405209226046e-02,-2.582332198195002107e-02,6.771778568622839611e-02
3.916112726081459883e+00,-2.943239132717510032e-01,5.481505392540499816e-02,1.672830405209226046e-02,-2.582332198195002107e-02,6.771778568622839611e-02
3.933517671530710746e+00,-2.943239132717510032e-01,5.481505392540499816e-02,1.672830405209226046e-02,-2.582332198195002107e-02,6.771778568622839611e-02
3.950922616979961610e+00,-2.943239132717510032e-01,5.481505392540499816e-02,1.672830405209226046e-02,-2.582332198195002107e-02,6.771778568622839611e-02
3.968327562429212918e+00,-2.943239132717510032e-01,5.481505392540499816e-02,1.672830405209226046e-02,-2.582332198195002107e-02,6.771778568622839611e-02
3.985732507878463782e+00,-2.943239132717510032e-01,5.481505392540499816e-02,1.672830405209226046e-02,-2.582332198195002107e-02,6.771778568622839611e-02
4.003137453327714645e+00,-2.943239132717510032e-01,5.481505392540499816e-02,1.672830405209226046e-02,-2.582332198195002107e-02,6.771778568622839611e-02
4.020542398776965953e+00,-2.943239132717510032e-01,5.481505392540499816e-02,1.672830405209226046e-02,-2.582332198195002107e-02,6.771778568622839611e-02
4.037947344226216373e+00,-2.943239132717510032e-01,5.481505392540499816e-02,1.672830405209226046e-02,-2.582332198195002107e-02,6.771778568622839611e-02
4.055352289675467681e+00,-2.943239132717510032e-01,5.481505392540499816e-02,1.672830405209226046e-02,-2.582332198195002107e-02,6.771778568622839611e-02
4.072757235124718100e+00,-2.943239132717510032e-01,5.481505392540499816e-02,1.672830405209226046e-02,-2.582332198195002107e-02,6.771778568622839611e-02
4.090162180573969408e+00,-2.943239132717510032e-01,5.481505392540499816e-02,1.672830405209226046e-02,-2.582332198195002107e-02,6.771778568622839611e-02
4.107567126023219828e+00,-2.943239132717510032e-01,5.481505392540499816e-02,1.672830405209226046e-02,-2.582332198195002107e-02,6.771778568622839611e-02
4.124972071472471136e+00,-2.943239132717510032e-01,5.481505392540499816e-02,1.672830405209226046e-02,-2.582332198195002107e-02,6.771778568622839611e-02
4.142377016921722443e+00,-2.943239132717510032e-01,5.481505392540499816e-02,1.672830405209226046e-02,-2.582332198195002107e-02,6.771778568622839611e-02
4.159781962370972863e+00,-2.943239132717510032e-01,5.481505392540499816e-02,1.672830405209226046e-02,-2.582332198195002107e-02,6.771778568622839611e-02
4.177186907820224171e+00,-2.943239132717510032e-01,5.481505392540499816e-02,1.672830405209226046e-02,-2.582332198195002107e-02,6.771778568622839611e-02
4.194591853269474591e+00,-2.943239132717510032e-01,5.481505392540499816e-02,1.672830405209226046e-02,-2.582332198195002107e-02,6.771778568622839611e-02
4.211996798718725898e+00,-2.943239132717510032e-01,5.481505392540499816e-02,1.672830405209226046e-02,-2.582332198195002107e-02,6.771778568622839611e-02
4.229401744167976318e+00,-2.943239132717510032e-01,5.481505392540499816e-02,1.672830405209226046e-02,-2.582332198195002107e-02,6.771778568622839611e-02
4.246806689617227626e+00,-2.943239132717510032e-01,5.481505392540499816e-02,1.672830405209226046e-02,-2.582332198195002107e-02,6.771778568622839611e-02
4.264211635066478934e+00,-2.943239132717510032e-01,5.481505392540499816e-02,1.672830405209226046e-02,-2.582332198195002107e-02,6.771778568622839611e-02
4.281616580515729353e+00,-2.943239132717510032e-01,5.481505392540499816e-02,1.672830405209226046e-02,-2.582332198195002107e-02,6.771778568622839611e-02
4.299021525964980661e+00,-2.943239132717510032e-01,5.481505392540499816e-02,1.672830405209226046e-02,-2.582332198195002107e-02,6.771778568622839611e-02
4.316426471414231081e+00,-2.943239132717510032e-01,5.481505392540499816e-02,1.672830405209226046e-02,-2.582332198195002107e-02,6.771778568622839611e-02
4.333831416863482389e+00,-2.943239132717510032e-01,5.481505392540499816e-02,1.672830405209226046e-02,-2.582332198195002107e-02,6.771778568622839611e-02
4.351236362312733696e+00,-2.943239132717510032e-01,5.481505392540499816e-02,1.672830405209226046e-02,-2.582332198195002107e-02,6.771778568622839611e-02
4.368641307761984116e+00,-2.943239132717510032e-01,5.481505392540499816e-02,1.672830405209226046e-02,-2.582332198195002107e-02,6.771778568622839611e-02
4.386046253211235424e+00,-2.943239132717510032e-01,5.481505392540499816e-02,1.672830405209226046e-02,-2.582332198195002107e-02,6.771778568622839611e-02
4.403451198660485844e+00,-2.943239132717510032e-01,5.481505392540499816e-02,1.672830405209226046e-02,-2.582332198195002107e-02,6.771778568622839611e-02
4.420856144109737151e+00,-2.943239132717510032e-01,5.481505392540499816e-02,1.672830405209226046e-02,-2.582332198195002107e-02,6.771778568622839611e-02
4.438261089558987571e+00,-2.943239132717510032e-01,5.481505392540499816e-02,1.672830405209226046e-02,-2.582332198195002107e-02,6.771778568622839611e-02
4.455666035008238879e+00,-2.943239132717510032e-01,5.481505392540499816e-02,1.672830405209226046e-02,-2.582332198195002107e-02,6.771778568622839611e-02
4.473070980457490187e+00,-2.943239132717510032e-01,5.481505392540499816e-02,1.672830405209226046e-02,-2.582332198195002107e-02,6.771778568622839611e-02
4.490475925906740606e+00,-2.943239132717510032e-01,5.481505392540499816e-02,1.672830405209226046e-02,-2.582332198195002107e-02,6.771778568622839611e-02
4.507880871355991914e+00,-2.943239132717510032e-01,5.481505392540499816e-02,1.672830405209226046e-02,-2.582332198195002107e-02,6.771778568622839611e-02
4.525285816805242334e+00,-2.943239132717510032e-01,5.481505392540499816e-02,1.672830405209226046e-02,-2.582332198195002107e-02,6.771778568622839611e-02
4.542690762254493642e+00,-2.943239132717510032e-01,5.481505392540499816e-02,1.672830405209226046e-02,-2.582332198195002107e-02,6.771778568622839611e-02
4.560095707703744061e+00,-2.943239132717510032e-01,5.481505392540499816e-02,1.672830405209226046e-02,-2.582332198195002107e-02,6.771778568622839611e-02
4.577500653152995369e+00,-2.943239132717510032e-01,5.481505392540499816e-02,1.672830405209226046e-02,-2.582332198195002107e-02,6.771778568622839611e-02
4.594905598602246677e+00,-2.943239132717510032e-01,5.481505392540499816e-02,1.672830405209226046e-02,-2.582332198195002107e-02,6.771778568622839611e-02
4.612310544051497097e+00,-2.943239132717510032e-01,5.481505392540499816e-02,1.672830405209226046e-02,-2.582332198195002107e-02,6.771778568622839611e-02
4.629715489500748404e+00,-2.943239132717510032e-01,5.481505392540499816e-02,1.672830405209226046e-02,-2.582332198195002107e-02,6.771778568622839611e-02
4.647120434949998824e+00,-2.943239132717510032e-01,5.481505392540499816e-02,1.672830405209226046e-02,-2.582332198195002107e-02,6.771778568622839611e-02
4.664525380399250132e+00,-2.943239132717510032e-01,5.481505392540499816e-02,1.672830405209226046e-02,-2.582332198195002107e-02,6.771778568622839611e-02
4.681930325848501440e+00,-2.943239132717510032e-01,5.481505392540499816e-02,1.672830405209226046e-02,-2.582332198195002107e-02,6.771778568622839611e-02
4.699335271297751859e+00,-2.943239132717510032e-01,5.481505392540499816e-02,1.672830405209226046e-02,-2.582332198195002107e-02,6.771778568622839611e-02
4.716740216747003167e+00,-2.943239132717510032e-01,5.481505392540499816e-02,1.672830405209226046e-02,-2.582332198195002107e-02,6.771778568622839611e-02
4.734145162196253587e+00,-2.943239132717510032e-01,5.481505392540499816e-02,1.672830405209226046e-02,-2.582332198195002107e-02,6.771778568622839611e-02
4.751550107645504895e+00,-2.943239132717510032e-01,5.481505392540499816e-02,1.672830405209226046e-02,-2.582332198195002107e-02,6.771778568622839611e-02
4.768955053094755314e+00,-2.943239132717510032e-01,5.481505392540499816e-02,1.672830405209226046e-02,-2.582332198195002107e-02,6.771778568622839611e-02
4.786359998544006622e+00,-2.943239132717510032e-01,5.481505392540499816e-02,1.672830405209226046e-02,-2.582332198195002107e-02,6.771778568622839611e-02
4.803764943993257930e+00,-2.943239132717510032e-01,5.481505392540499816e-02,1.672830405209226046e-02,-2.582332198195002107e-02,6.771778568622839611e-02
4.821169889442508349e+00,-2.943239132717510032e-01,5.481505392540499816e-02,1.672830405209226046e-02,-2.582332198195002107e-02,6.771778568622839611e-02
4.838574834891759657e+00,-2.943239132717510032e-01,5.481505392540499816e-02,1.672830405209226046e-02,-2.582332198195002107e-02,6.771778568622839611e-02
4.855979780341010077e+00,-2.943239132717510032e-01,5.481505392540499816e-02,1.672830405209226046e-02,-2.582332198195002107e-02,6.771778568622839611e-02
4.873384725790261385e+00,-2.943239132717510032e-01,5.481505392540499816e-02,1.672830405209226046e-02,-2.582332198195002107e-02,6.771778568622839611e-02
4.890789671239511804e+00,-2.943239132717510032e-01,5.481505392540499816e-02,1.672830405209226046e-02,-2.582332198195002107e-02,6.771778568622839611e-02
4.908194616688763112e+00,-2.943239132717510032e-01,5.481505392540499816e-02,1.672830405209226046e-02,-2.582332198195002107e-02,6.771778568622839611e-02
4.925599562138014420e+00,-2.943239132717510032e-01,5.481505392540499816e-02,1.672830405209226046e-02,-2.582332198195002107e-02,6.771778568622839611e-02
4.943004507587264840e+00,-2.943239132717510032e-01,5.481505392540499816e-02,1.672830405209226046e-02,-2.582332198195002107e-02,6.771778568622839611e-02
4.960409453036516148e+00,-2.911389961010475980e-01,5.503328478757053832e-02,1.779247226437878290e-02,-2.785346193257009703e-02,6.842023463342077061e-02
4.977814398485766567e+00,-2.847883317931257929e-01,5.544799846047198527e-02,1.996636417177572592e-02,-3.192850528611988065e-02,6.980370972538454954e-02
4.995219343935017875e+00,-2.784676997381728136e-01,5.583341299714890404e-02,2.219829878189233732e-02,-3.601972842205639069e-02,7.115762424221641624e-02
5.012624289384268295e+00,-2.721775986964001248e-01,5.618950011529585953e-02,2.448648348061104388e-02,-4.012589857210056149e-02,7.248188100118348187e-02
5.030029234833519602e+00,-2.659185024498241234e-01,5.651622689080367662e-02,2.682892582468662107e-02,-4.424564554525334259e-02,7.377641531236660277e-02
5.047434180282770910e+00,-2.596908579118250571e-01,5.681355500647829182e-02,2.922341489658106251e-02,-4.837744730307297347e-02,7.504119903078773635e-02
5.064839125732021330e+00,-2.534950831391715731e-01,5.708143991481620660e-02,3.166750067630192539e-02,-5.251961388346367693e-02,7.627624507088931471e-02
5.082244071181272638e+00,-2.473315652542915077e-01,5.731982990540586409e-02,3.415847120468351594e-02,-5.667026947502056683e-02,7.748161243611813298e-02
5.099649016630523057e+00,-2.412006582904794305e-01,5.752866506671993480e-02,3.669332728936040844e-02,-6.082733242190473816e-02,7.865741182181167079e-02
5.117053962079774365e+00,-2.351026809791741390e-01,5.770787613129049753e-02,3.926875448079764769e-02,-6.498849291587510679e-02,7.980381185527013477e-02
5.134458907529025673e+00,-2.290379145068616173e-01,5.785738319256655132e-02,4.188109202197302233e-02,-6.915118810795622961e-02,8.092104604267276458e-02
5.151863852978276093e+00,-2.230066002800374370e-01,5.797709428121576580e-02,4.452629845295002359e-02,-7.331257434812947504e-02,8.200942049815124202e-02
5.169268798427527400e+00,-2.170089377506843054e-01,5.806690378835040883e-02,4.719991353252064176e-02,-7.746949623864535228e-02,8.306932253552469503e-02
5.186673743876777820e+00,-2.110450823726665870e-01,5.812669072327401182e-02,4.989701612610824427e-02,-8.161845216698652983e-02,8.410123020744972311e-02
5.204078689326029128e+00,-2.051151437822551493e-01,5.815631679405542515e-02,5.261217770616308936e-02,-8.575555597096548577e-02,8.510572287936153668e-02
5.221483634775279548e+00,-1.992191843249013772e-01,5.815562430080397499e-02,5.533941112386973893e-02,-8.987649438484329734e-02,8.608349292560540933e-02
5.238888580224530855e+00,-1.933572180866634238e-01,5.812443383429739124e-02,5.807211434682291867e-02,-9.397647992733161593e-02,8.703535863127409566e-02
5.256293525673782163e+00,-1.875292106340061826e-01,5.806254177706943881e-02,6.080300892684204622e-02,-9.805019892751551391e-02,8.796227837367232016e-02
5.273698471123032583e+00,-1.817350797217291702e-01,5.796971761080563224e-02,6.352407307939147985e-02,-1.020917544535916571e-01,8.886536613964758635e-02
5.291103416572283891e+00,-1.759746972974031987e-01,5.784570104370254789e-02,6.622646943977385237e-02,-1.060946040257626094e-01,8.974590840611644527e-02
5.308508362021534310e+00,-1.702478932136332057e-01,5.769019898529969409e-02,6.890046783564006405e-02,-1.100514921769810833e-01,9.060538236695335479e-02
5.325913307470785618e+00,-1.645544611580438688e-01,5.750288241539074779e-02,7.153536381130591593e-02,-1.139543781969959563e-01,9.144547542492890979e-02
5.343318252920036038e+00,-1.588941674256051373e-01,5.728338321938310218e-02,7.411939419510975291e-02,-1.177943597856400820e-01,9.226810577639736610e-02
5.360723198369287346e+00,-1.532667632874341879e-01,5.703129109649211076e-02,7.663965176225999432e-02,-1.215615938859827827e-01,9.307544379170899773e-02
5.378128143818538653e+00,-1.476720018505198739e-01,5.674615069108526755e-02,7.908200206381088559e-02,-1.252452167073532519e-01,9.386993372784549483e-02
5.395533089267789073e+00,-1.421096604451482781e-01,5.642745915280700242e-02,8.143100682103816823e-02,-1.288332659254046997e-01,9.465431509354929607e-02
5.412938034717040381e+00,-1.365795697058698466e-01,5.607466439870751468e-02,8.366985997043263623e-02,-1.323126093007740978e-01,9.543164271461883341e-02
5.430342980166290801e+00,-1.310816506027158990e-01,5.568716443009544964e-02,8.578034451336451205e-02,-1.356688855148233674e-01,9.620530421531295340e-02
5.447747925615542108e+00,-1.256159606947691854e-01,5.526430814560527593e-02,8.774282075640535417e-02,-1.388864648739268903e-01,9.697903324578933948e-02
5.465152871064793416e+00,-1.201827507659823241e-01,5.480539818377957312e-02,8.953625922289422390e-02,-1.419484396183439412e-01,9.775691636300609666e-02
5.482557816514043836e+00,-1.147825326954676206e-01,5.430969641180464352e-02,9.113833424546041728e-02,-1.448366557302739055e-01,9.854339105123367804e-02
5.499962761963295144e+00,-1.094161588314698508e-01,5.377643273346545405e-02,9.252559660194065172e-02,-1.475318000754946846e-01,9.934323201336424380e-02
5.517367707412545563e+00,-1.040849121983290909e-01,5.320481789242503812e-02,9.367374488936240640e-02,-1.500135579668159524e-01,1.001615226743221981e-01
5.534772652861796871e+00,-9.879060550725766998e-02,5.259406086263548191e-02,9.455801474441903609e-02,-1.522608561449025621e-01,1.010036089463157982e-01
5.552177598311047291e+00,-9.353568515754820401e-02,5.194339120836285323e-02,9.515370141207707411e-02,-1.542522039109528453e-01,1.018750328697543978e-01
5.569582543760298599e+00,-8.832333429829877791e-02,5.125208642901516592e-02,9.543682340268073994e-02,-1.559661398545785227e-01,1.027814449162717247e-01
5.586987489209549906e+00,-8.315756681415967244e-02,5.051950376467690546e-02,9.538492223456167263e-02,-1.573817826421492205e-01,1.037284956182760037e-01
5.604392434658800326e+00,-7.804330222126971972e-02,4.974511525020271219e-02,9.497797551499501112e-02,-1.584794715827834988e-01,1.047217097420015813e-01
5.621797380108051634e+00,-7.298641048510122464e-02,4.892854404670056445e-02,9.419937922397811358e-02,-1.592414670842781932e-01,1.057663492154443802e-01
5.639202325557302053e+00,-6.799371632241560381e-02,4.806959938812585542e-02,9.303693316113421929e-02,-1.596526648654170155e-01,1.068672739826093537e-01
5.656607271006553361e+00,-6.307295509855093130e-02,4.716830704175330180e-02,9.148374588571910049e-02,-1.597012643651171127e-01,1.080288121983149219e-01
5.674012216455803781e+00,-5.823267705738922190e-02,4.622493217926559872e-02,8.953896766620532410e-02,-1.593793252485017908e-01,1.092546519621122869e-01
5.691417161905055089e+00,-5.348210281266824878e-02,4.523999210797224890e-02,8.720826655138937122e-02,-1.586831496946213560e-01,1.105477655621907168e-01
5.708822107354306397e+00,-4.883093966852365686e-02,4.421425740460886711e-02,8.450398531515619649e-02,-1.576134436023617080e-01,1.119103738571789186e-01
5.726227052803556816e+00,-4.428917394752716202e-02,4.314874145110885600e-02,8.144495300634271850e-02,-1.561752351745581413e-01,1.133439534612209754e-01
5.743631998252808124e+00,-3.986685771180133175e-02,4.204467988889089985e-02,7.805596724773426753e-02,-1.543775596597188049e-01,1.148492838351850981e-01
5.761036943702058544e+00,-3.557390828651506992e-02,4.090350274699825622e-02,7.436700309885120597e-02,-1.522329477541972675e-01,1.164265264612698997e-01
5.778441889151309852e+00,-3.141993593310005856e-02,3.972680270032386690e-02,7.041223279154415482e-02,-1.497567761571878819e-01,1.180753250287989997e-01
5.795846834600561159e+00,-2.741410978358387734e-02,3.851630297842206785e-02,6.622895299269787595e-02,-1.469665483292963704e-01,1.197949144961480417e-01
5.813251780049811579e+00,-2.356506609273802122e-02,3.727382794917871028e-02,6.185651214675638027e-02,-1.438811712887386185e-01,1.215842278982041808e-01
5.830656725499062887e+00,-1.988085731019293215e-02,3.600127854421512202e-02,5.733531363133813341e-02,-1.405202828633994594e-01,1.234419922354308558e-01
5.848061670948313306e+00,-1.636893633130764164e-02,3.470061371274213435e-02,5.270594676637177511e-02,-1.369036673395524761e-01,1.253668079020699710e-01
5.865466616397564614e+00,-1.303616791394625503e-02,3.337383818963406135e-02,4.800847298405776925e-02,-1.330507800785301342e-01,1.273572091539580953e-01
5.882871561846815034e+00,-9.888858530940691088e-03,3.202299616597022169e-02,4.328187302290849303e-02,-1.289803865293102647e-01,1.294117055900615709e-01
5.900276507296066342e+00,-6.932796458972447472e-03,3.065016999844245860e-02,3.856364513160634444e-02,-1.247103098077477906e-01,1.315288063157467879e-01
5.917681452745317650e+00,-4.173295189432994073e-03,2.925748286860120964e-02,3.388953440774193637e-02,-1.202572739941279445e-01,1.337070293844159763e-01
5.935086398194568069e+00,-1.615234845348249848e-03,2.784710425155431310e-02,2.929336878819677539e-02,-1.156368269971504992e-01,1.359448994242212772e-01
5.952491343643819377e+00,7.369021163064759516e-04,2.642125711567679808e-02,2.480697652549348348e-02,-1.108633263123599277e-01,1.382409362413778708e-01
5.969896289093069797e+00,2.879003230314867642e-03,2.498222589656284853e-02,2.046016183261176874e-02,-1.059499722783927844e-01,1.405936368330235331e-01
5.987301234542321104e+00,4.807307547643158499e-03,2.353236443044609202e-02,1.628071857575744824e-02,-1.009088756641536438e-01,1.430014527827933035e-01
6.004706179991571524e+00,6.518396655012353470e-03,2.207410317014799755e-02,1.229446557706155921e-02,-9.575114898631546800e-02,1.454627645474994013e-01
6.022111125440822832e+00,8.009194844407379818e-03,2.060995512827791878e-02,8.525290705175138373e-03,-9.048701346061098494e-02,1.479758537297516940e-01
6.039516070890074140e+00,9.276977627152327086e-03,1.914252009490471224e-02,4.995194180126985919e-03,-8.512591571023904458e-02,1.505388740957624427e-01
6.056921016339324559e+00,1.031938745777907090e-02,1.767448676291938706e-02,1.724324275433095337e-03,-7.967665019298049434e-02,1.531498218476849138e-01
6.074325961788575867e+00,1.113445529229936323e-02,1.620863246953774608e-02,-1.268999148100864510e-03,-7.414748474619238527e-02,1.558065054926005555e-01
6.091730907237826287e+00,1.172062642401385489e-02,1.474782033368599900e-02,-3.968276049243352199e-03,-6.854628770981020802e-02,1.585065155574584550e-01
6.109135852687077595e+00,1.207678890084753522e-02,1.329499364298310921e-02,-6.358833918430254091e-03,-6.288065581581962771e-02,1.612471943706315913e-01
6.126540798136328903e+00,1.220230272632540428e-02,1.185316742609973661e-02,-8.427852059738106388e-03,-5.715804247852798725e-02,1.640256061554176137e-01
6.143945743585579322e+00,1.209702798631605639e-02,1.042541723992465065e-02,-1.016440184487080005e-02,-5.138588633283541762e-02,1.668385077476046974e-01
6.161350689034830630e+00,1.176135003723885984e-02,9.014865307247932336e-03,-1.155950165806337963e-02,-4.557173989399086744e-02,1.696823203462948237e-01
6.178755634484081050e+00,1.119619995416272842e-02,7.624664257734392603e-03,-1.260618470271737679e-02,-3.972339809491638729e-02,1.725531028217331397e-01
6.196160579933332357e+00,1.040306858517475556e-02,6.257978847979438382e-03,-1.329957739645134043e-02,-3.384902623596683369e-02,1.754465272220907257e-01
6.213565525382582777e+00,9.384012804392024079e-03,4.917966157723270386e-03,-1.363698572058278519e-02,-2.795728659344332706e-02,1.783578572287854158e-01
6.230970470831834085e+00,8.141652906051495206e-03,3.607754868844037857e-03,-1.361798659961082313e-02,-2.205746260877149145e-02,1.812819303939322280e-01
6.248375416281085393e+00,6.679160532495195465e-03,2.330424320245971879e-03,-1.324452115574554709e-02,-1.615957924353937994e-02,1.842131450441192864e-01
6.265780361730335812e+00,5.000237064165976610e-03,1.088984083854771523e-03,-1.252098650067640963e-02,-1.027451774774111246e-02,1.871454527482472596e-01
6.283185307179586232e+00,3.109082992589040466e-03,-1.136451851628183466e-04,-1.145432257210363819e-02,-4.414122744361151200e-03,1.900723572284823415e-01
